EESchema Schematic File Version 4
EELAYER 30 0
EELAYER END
$Descr A4 11693 8268
encoding utf-8
Sheet 1 1
Title ""
Date ""
Rev ""
Comp ""
Comment1 ""
Comment2 ""
Comment3 ""
Comment4 ""
$EndDescr
$Comp
L Transistor_FET:IRF540N Q4
U 1 1 5F92FF4A
P 6850 2800
F 0 "Q4" H 7054 2846 50  0000 L CNN
F 1 "IRF540N" H 7054 2755 50  0000 L CNN
F 2 "Package_TO_SOT_THT:TO-220-3_Vertical" H 7100 2725 50  0001 L CIN
F 3 "http://www.irf.com/product-info/datasheets/data/irf540n.pdf" H 6850 2800 50  0001 L CNN
	1    6850 2800
	1    0    0    -1  
$EndComp
$Comp
L Transistor_BJT:BC557 Q3
U 1 1 5F93217C
P 5750 3200
F 0 "Q3" H 5941 3154 50  0000 L CNN
F 1 "BC557" H 5941 3245 50  0000 L CNN
F 2 "Package_TO_SOT_THT:TO-92_Inline" H 5950 3125 50  0001 L CIN
F 3 "http://www.fairchildsemi.com/ds/BC/BC557.pdf" H 5750 3200 50  0001 L CNN
	1    5750 3200
	1    0    0    1   
$EndComp
$Comp
L Transistor_BJT:BC547 Q5
U 1 1 5F932E80
P 4350 1350
F 0 "Q5" H 4541 1396 50  0000 L CNN
F 1 "BC547" H 4541 1305 50  0000 L CNN
F 2 "Package_TO_SOT_THT:TO-92_Inline" H 4550 1275 50  0001 L CIN
F 3 "http://www.fairchildsemi.com/ds/BC/BC547.pdf" H 4350 1350 50  0001 L CNN
	1    4350 1350
	1    0    0    -1  
$EndComp
$Comp
L Transistor_BJT:BC547 Q1
U 1 1 5F935C37
P 4350 2850
F 0 "Q1" H 4541 2896 50  0000 L CNN
F 1 "BC547" H 4541 2805 50  0000 L CNN
F 2 "Package_TO_SOT_THT:TO-92_Inline" H 4550 2775 50  0001 L CIN
F 3 "http://www.fairchildsemi.com/ds/BC/BC547.pdf" H 4350 2850 50  0001 L CNN
	1    4350 2850
	1    0    0    -1  
$EndComp
$Comp
L power:+BATT #PWR0101
U 1 1 5F941926
P 3350 2000
F 0 "#PWR0101" H 3350 1850 50  0001 C CNN
F 1 "+BATT" V 3365 2127 50  0000 L CNN
F 2 "" H 3350 2000 50  0001 C CNN
F 3 "" H 3350 2000 50  0001 C CNN
	1    3350 2000
	0    -1   -1   0   
$EndComp
Wire Wire Line
	5850 2000 5850 2200
Wire Wire Line
	5000 2400 5000 2650
$Comp
L Transistor_BJT:BC557 Q2
U 1 1 5F93181F
P 5750 2400
F 0 "Q2" H 5941 2354 50  0000 L CNN
F 1 "BC557" H 5941 2445 50  0000 L CNN
F 2 "Package_TO_SOT_THT:TO-92_Inline" H 5950 2325 50  0001 L CIN
F 3 "http://www.fairchildsemi.com/ds/BC/BC557.pdf" H 5750 2400 50  0001 L CNN
	1    5750 2400
	1    0    0    1   
$EndComp
$Comp
L power:GND #PWR0102
U 1 1 5F94D3CE
P 6950 3800
F 0 "#PWR0102" H 6950 3550 50  0001 C CNN
F 1 "GND" H 6955 3627 50  0000 C CNN
F 2 "" H 6950 3800 50  0001 C CNN
F 3 "" H 6950 3800 50  0001 C CNN
	1    6950 3800
	1    0    0    -1  
$EndComp
$Comp
L power:GND #PWR0103
U 1 1 5F956355
P 4450 1550
F 0 "#PWR0103" H 4450 1300 50  0001 C CNN
F 1 "GND" H 4455 1377 50  0000 C CNN
F 2 "" H 4450 1550 50  0001 C CNN
F 3 "" H 4450 1550 50  0001 C CNN
	1    4450 1550
	1    0    0    -1  
$EndComp
$Comp
L Device:R R2
U 1 1 5F96DDBE
P 4000 3250
F 0 "R2" H 4070 3296 50  0000 L CNN
F 1 "10K" H 4070 3205 50  0000 L CNN
F 2 "Resistor_THT:R_Axial_DIN0207_L6.3mm_D2.5mm_P7.62mm_Horizontal" V 3930 3250 50  0001 C CNN
F 3 "~" H 4000 3250 50  0001 C CNN
	1    4000 3250
	1    0    0    -1  
$EndComp
Wire Wire Line
	4000 3650 4450 3650
Wire Wire Line
	3850 2850 4000 2850
Connection ~ 4000 2850
Wire Wire Line
	4000 2850 4150 2850
$Comp
L Device:R R5
U 1 1 5F99CB17
P 5000 2800
F 0 "R5" H 5070 2846 50  0000 L CNN
F 1 "10K" H 5070 2755 50  0000 L CNN
F 2 "Resistor_THT:R_Axial_DIN0207_L6.3mm_D2.5mm_P7.62mm_Horizontal" V 4930 2800 50  0001 C CNN
F 3 "~" H 5000 2800 50  0001 C CNN
	1    5000 2800
	1    0    0    -1  
$EndComp
$Comp
L Device:R R3
U 1 1 5F99D3A1
P 4450 2200
F 0 "R3" H 4520 2246 50  0000 L CNN
F 1 "1K" H 4520 2155 50  0000 L CNN
F 2 "Resistor_THT:R_Axial_DIN0207_L6.3mm_D2.5mm_P7.62mm_Horizontal" V 4380 2200 50  0001 C CNN
F 3 "~" H 4450 2200 50  0001 C CNN
	1    4450 2200
	1    0    0    -1  
$EndComp
Wire Wire Line
	4450 2000 5850 2000
Wire Wire Line
	4450 2000 4450 2050
$Comp
L Device:R R4
U 1 1 5F9B9DEB
P 5350 2400
F 0 "R4" V 5143 2400 50  0000 C CNN
F 1 "10K" V 5234 2400 50  0000 C CNN
F 2 "Resistor_THT:R_Axial_DIN0207_L6.3mm_D2.5mm_P7.62mm_Horizontal" V 5280 2400 50  0001 C CNN
F 3 "~" H 5350 2400 50  0001 C CNN
	1    5350 2400
	0    1    1    0   
$EndComp
Wire Wire Line
	5000 2400 5200 2400
Connection ~ 5000 2400
Wire Wire Line
	4450 3050 4450 3650
Wire Wire Line
	5000 3200 5550 3200
Wire Wire Line
	5000 2950 5000 3200
Wire Wire Line
	5500 2400 5550 2400
Wire Wire Line
	4450 2350 4450 2400
Wire Wire Line
	4450 2400 5000 2400
Connection ~ 4450 2400
Wire Wire Line
	4450 2400 4450 2650
Wire Wire Line
	4000 2850 4000 3100
Wire Wire Line
	4000 3400 4000 3650
Wire Wire Line
	4450 3650 5850 3650
Connection ~ 4450 3650
Wire Wire Line
	6950 3000 6950 3650
Wire Wire Line
	5850 3400 5850 3650
$Comp
L Device:R R8
U 1 1 5F9E86FE
P 3700 1350
F 0 "R8" V 3493 1350 50  0000 C CNN
F 1 "10K" V 3584 1350 50  0000 C CNN
F 2 "Resistor_THT:R_Axial_DIN0207_L6.3mm_D2.5mm_P7.62mm_Horizontal" V 3630 1350 50  0001 C CNN
F 3 "~" H 3700 1350 50  0001 C CNN
	1    3700 1350
	0    1    1    0   
$EndComp
Wire Wire Line
	3850 1350 4150 1350
$Comp
L Relay:RT42xAxx K1
U 1 1 5FA06542
P 8500 2900
F 0 "K1" V 7733 2900 50  0000 C CNN
F 1 "40.52" V 7824 2900 50  0000 C CNN
F 2 "Relay_THT:Relay_DPDT_Schrack-RT2-FormC_RM5mm" H 8500 2900 50  0001 C CNN
F 3 "http://www.te.com/commerce/DocumentDelivery/DDEController?Action=showdoc&DocId=Data+Sheet%7FRT2_bistable%7F1116%7Fpdf%7FEnglish%7FENG_DS_RT2_bistable_1116.pdf%7F1-1415537-8" H 8500 2900 50  0001 C CNN
	1    8500 2900
	0    1    1    0   
$EndComp
Wire Wire Line
	4450 1150 9200 1150
Wire Wire Line
	5850 2000 7850 2000
Connection ~ 5850 2000
$Comp
L Diode:1N4007 D1
U 1 1 5FA0D110
P 8500 2000
F 0 "D1" H 8500 2216 50  0000 C CNN
F 1 "1N4007" H 8500 2125 50  0000 C CNN
F 2 "Diode_THT:D_DO-41_SOD81_P7.62mm_Horizontal" H 8500 1825 50  0001 C CNN
F 3 "http://www.vishay.com/docs/88503/1n4001.pdf" H 8500 2000 50  0001 C CNN
	1    8500 2000
	1    0    0    -1  
$EndComp
Wire Wire Line
	6950 2600 6950 2500
Wire Wire Line
	7500 2500 7500 3300
$Comp
L Diode:1N4007 D2
U 1 1 5FA2464D
P 7850 3100
F 0 "D2" V 7804 3179 50  0000 L CNN
F 1 "1N4007" V 7895 3179 50  0000 L CNN
F 2 "Diode_THT:D_DO-41_SOD81_P7.62mm_Horizontal" H 7850 2925 50  0001 C CNN
F 3 "http://www.vishay.com/docs/88503/1n4001.pdf" H 7850 3100 50  0001 C CNN
	1    7850 3100
	0    1    1    0   
$EndComp
Wire Wire Line
	7850 2950 7850 2900
Connection ~ 7850 2000
Wire Wire Line
	8250 2900 8200 2900
Connection ~ 7850 2900
Wire Wire Line
	7850 2900 7850 2500
Connection ~ 8200 2900
Wire Wire Line
	8200 2900 7850 2900
Wire Wire Line
	7850 3250 7850 3300
Connection ~ 7850 3300
Wire Wire Line
	7850 3300 8200 3300
Connection ~ 7850 2500
Wire Wire Line
	7850 2500 7850 2000
Wire Wire Line
	7850 2000 8350 2000
Wire Wire Line
	7850 2500 8200 2500
Wire Wire Line
	8800 2500 9200 2500
Wire Wire Line
	8650 2000 9200 2000
Connection ~ 9200 2000
$Comp
L Connector_Generic:Conn_01x02 J3
U 1 1 5FA7627B
P 2650 7300
F 0 "J3" H 2730 7292 50  0000 L CNN
F 1 "Motor" H 2730 7201 50  0000 L CNN
F 2 "Connector_PinHeader_2.54mm:PinHeader_1x02_P2.54mm_Vertical" H 2730 7155 50  0001 C CNN
F 3 "" H 2650 7300 50  0001 C CNN
	1    2650 7300
	-1   0    0    -1  
$EndComp
Text GLabel 3300 1350 0    50   Input ~ 0
GPIO23
Text GLabel 3300 2850 0    50   Input ~ 0
GPIO18
Wire Wire Line
	8800 2800 9500 2800
Wire Wire Line
	8800 3200 9200 3200
Wire Wire Line
	8800 3400 9500 3400
Wire Wire Line
	5850 2600 5850 2800
Wire Wire Line
	7500 3300 7850 3300
Wire Wire Line
	6950 2500 7500 2500
Wire Wire Line
	5850 2800 6000 2800
Connection ~ 5850 2800
Wire Wire Line
	5850 2800 5850 3000
Wire Wire Line
	5850 3650 6500 3650
Connection ~ 5850 3650
$Comp
L Device:R R6
U 1 1 5FAE8FC9
P 6150 2800
F 0 "R6" V 5943 2800 50  0000 C CNN
F 1 "1R" V 6034 2800 50  0000 C CNN
F 2 "Resistor_THT:R_Axial_DIN0207_L6.3mm_D2.5mm_P7.62mm_Horizontal" V 6080 2800 50  0001 C CNN
F 3 "~" H 6150 2800 50  0001 C CNN
	1    6150 2800
	0    1    1    0   
$EndComp
Wire Wire Line
	6300 2800 6500 2800
$Comp
L Device:R R7
U 1 1 5FAEA2AE
P 6500 3200
F 0 "R7" H 6570 3246 50  0000 L CNN
F 1 "10K" H 6570 3155 50  0000 L CNN
F 2 "Resistor_THT:R_Axial_DIN0207_L6.3mm_D2.5mm_P7.62mm_Horizontal" V 6430 3200 50  0001 C CNN
F 3 "~" H 6500 3200 50  0001 C CNN
	1    6500 3200
	1    0    0    -1  
$EndComp
Wire Wire Line
	6500 2800 6500 3050
Connection ~ 6500 2800
Wire Wire Line
	6500 2800 6650 2800
Wire Wire Line
	6500 3350 6500 3650
Connection ~ 6500 3650
Wire Wire Line
	6500 3650 6950 3650
$Comp
L Analog_ADC:MCP3202 U1
U 1 1 5FAFCC6A
P 6350 5250
F 0 "U1" H 6450 5931 50  0000 C CNN
F 1 "MCP3202" H 6450 5840 50  0000 C CNN
F 2 "Package_DIP:DIP-8_W7.62mm" H 6350 5150 50  0001 C CNN
F 3 "http://ww1.microchip.com/downloads/en/DeviceDoc/21034D.pdf" H 6350 5450 50  0001 C CNN
	1    6350 5250
	-1   0    0    -1  
$EndComp
Wire Wire Line
	8800 3000 9200 3000
Wire Wire Line
	9200 3000 9200 3200
Wire Wire Line
	3300 1350 3550 1350
Wire Wire Line
	3350 2000 4450 2000
Connection ~ 4450 2000
Wire Wire Line
	3300 2850 3550 2850
Text GLabel 5400 5050 0    50   Input ~ 0
GPIO8
Text GLabel 5450 5150 0    50   Input ~ 0
GPIO11
Text GLabel 5400 5350 0    50   Input ~ 0
GPIO9
Text GLabel 5450 5450 0    50   Input ~ 0
GPIO10
Wire Wire Line
	5400 5050 5650 5050
Wire Wire Line
	5650 5150 5450 5150
Wire Wire Line
	5400 5350 5650 5350
Wire Wire Line
	5650 5450 5450 5450
$Comp
L Device:R R12
U 1 1 5FCEF61D
P 7500 5750
F 0 "R12" H 7570 5796 50  0000 L CNN
F 1 "680" H 7570 5705 50  0000 L CNN
F 2 "Resistor_THT:R_Axial_DIN0207_L6.3mm_D2.5mm_P7.62mm_Horizontal" V 7430 5750 50  0001 C CNN
F 3 "~" H 7500 5750 50  0001 C CNN
	1    7500 5750
	1    0    0    -1  
$EndComp
$Comp
L Device:R R13
U 1 1 5FCF03D5
P 8000 5450
F 0 "R13" V 7793 5450 50  0000 C CNN
F 1 "1K" V 7884 5450 50  0000 C CNN
F 2 "Resistor_THT:R_Axial_DIN0207_L6.3mm_D2.5mm_P7.62mm_Horizontal" V 7930 5450 50  0001 C CNN
F 3 "~" H 8000 5450 50  0001 C CNN
	1    8000 5450
	0    1    1    0   
$EndComp
Wire Wire Line
	6850 5450 7500 5450
$Comp
L Device:R R11
U 1 1 5FD10C7D
P 7500 4800
F 0 "R11" H 7570 4846 50  0000 L CNN
F 1 "6.8K" H 7570 4755 50  0000 L CNN
F 2 "Resistor_THT:R_Axial_DIN0207_L6.3mm_D2.5mm_P7.62mm_Horizontal" V 7430 4800 50  0001 C CNN
F 3 "~" H 7500 4800 50  0001 C CNN
	1    7500 4800
	1    0    0    -1  
$EndComp
Wire Wire Line
	6350 4400 7500 4400
Connection ~ 6350 4400
Wire Wire Line
	6850 5050 7500 5050
Wire Wire Line
	7500 5450 7500 5600
Wire Wire Line
	7500 5050 7500 4950
Wire Wire Line
	7500 6000 7500 5900
Text GLabel 3700 5050 2    50   Input ~ 0
GPIO24
$Comp
L Device:R R9
U 1 1 5FDAFEDF
P 3100 4700
F 0 "R9" H 3030 4654 50  0000 R CNN
F 1 "330" H 3030 4745 50  0000 R CNN
F 2 "Resistor_THT:R_Axial_DIN0207_L6.3mm_D2.5mm_P7.62mm_Horizontal" V 3030 4700 50  0001 C CNN
F 3 "~" H 3100 4700 50  0001 C CNN
	1    3100 4700
	-1   0    0    1   
$EndComp
$Comp
L Device:R R10
U 1 1 5FDB01EA
P 2550 5500
F 0 "R10" V 2343 5500 50  0000 C CNN
F 1 "1K" V 2434 5500 50  0000 C CNN
F 2 "Resistor_THT:R_Axial_DIN0207_L6.3mm_D2.5mm_P7.62mm_Horizontal" V 2480 5500 50  0001 C CNN
F 3 "~" H 2550 5500 50  0001 C CNN
	1    2550 5500
	0    1    1    0   
$EndComp
$Comp
L Transistor_BJT:BC547 Q6
U 1 1 5FDB6DAF
P 3000 5500
F 0 "Q6" H 3191 5546 50  0000 L CNN
F 1 "BC547" H 3191 5455 50  0000 L CNN
F 2 "Package_TO_SOT_THT:TO-92_Inline" H 3200 5425 50  0001 L CIN
F 3 "http://www.fairchildsemi.com/ds/BC/BC547.pdf" H 3000 5500 50  0001 L CNN
	1    3000 5500
	1    0    0    -1  
$EndComp
$Comp
L power:+3.3V #PWR0104
U 1 1 5FDEF45A
P 2250 4350
F 0 "#PWR0104" H 2250 4200 50  0001 C CNN
F 1 "+3.3V" H 2265 4523 50  0000 C CNN
F 2 "" H 2250 4350 50  0001 C CNN
F 3 "" H 2250 4350 50  0001 C CNN
	1    2250 4350
	1    0    0    -1  
$EndComp
Wire Wire Line
	2250 4350 2250 4400
Wire Wire Line
	3100 5300 3100 5050
Wire Wire Line
	2700 5500 2800 5500
Wire Wire Line
	3700 5050 3100 5050
Connection ~ 3100 5050
Wire Wire Line
	3100 5050 3100 4850
$Comp
L power:GND #PWR0105
U 1 1 5FE17A9E
P 3100 6200
F 0 "#PWR0105" H 3100 5950 50  0001 C CNN
F 1 "GND" H 3105 6027 50  0000 C CNN
F 2 "" H 3100 6200 50  0001 C CNN
F 3 "" H 3100 6200 50  0001 C CNN
	1    3100 6200
	1    0    0    -1  
$EndComp
Wire Wire Line
	2250 4400 3100 4400
Connection ~ 2250 4400
Wire Wire Line
	7500 4400 7500 4650
Wire Wire Line
	6350 4400 6350 4750
Wire Wire Line
	2250 4400 2250 5400
Wire Wire Line
	3100 4550 3100 4400
Connection ~ 3100 4400
Wire Wire Line
	3100 4400 6350 4400
Wire Wire Line
	7500 5450 7850 5450
Connection ~ 7500 5450
$Comp
L power:+BATT #PWR0106
U 1 1 5FED7B0D
P 8600 5450
F 0 "#PWR0106" H 8600 5300 50  0001 C CNN
F 1 "+BATT" V 8615 5578 50  0000 L CNN
F 2 "" H 8600 5450 50  0001 C CNN
F 3 "" H 8600 5450 50  0001 C CNN
	1    8600 5450
	0    1    1    0   
$EndComp
Wire Wire Line
	7500 6000 6350 6000
Wire Wire Line
	6350 5750 6350 6000
Wire Wire Line
	6350 6000 3100 6000
Wire Wire Line
	3100 5700 3100 6000
Connection ~ 6350 6000
Wire Wire Line
	3100 6200 3100 6000
Connection ~ 3100 6000
Wire Wire Line
	6950 3650 6950 3800
Connection ~ 6950 3650
Wire Wire Line
	8150 5450 8600 5450
Wire Wire Line
	9450 5150 9450 6000
Wire Wire Line
	9450 6000 7500 6000
Connection ~ 7500 6000
$Comp
L Connector_Generic:Conn_01x12 J1
U 1 1 5F949570
P 1250 7000
F 0 "J1" H 1350 6850 50  0000 L CNN
F 1 "Raspberry" H 1350 6950 50  0000 L CNN
F 2 "Connector_PinHeader_2.54mm:PinHeader_1x12_P2.54mm_Vertical" H 1250 7000 50  0001 C CNN
F 3 "~" H 1250 7000 50  0001 C CNN
	1    1250 7000
	-1   0    0    1   
$EndComp
Text GLabel 10400 3200 2    50   Input ~ 0
Motor+
Text GLabel 10400 3400 2    50   Input ~ 0
Motor-
Wire Wire Line
	9500 2800 9500 3400
Wire Wire Line
	9500 3400 10400 3400
Connection ~ 9500 3400
Wire Wire Line
	9200 3200 10400 3200
Connection ~ 9200 3200
Text GLabel 2850 7300 2    50   Input ~ 0
Motor+
Text GLabel 2850 7400 2    50   Input ~ 0
Motor-
$Comp
L Connector_Generic:Conn_01x02 J5
U 1 1 5FAA5A51
P 4200 7300
F 0 "J5" H 4280 7292 50  0000 L CNN
F 1 "Water Sensor" H 4280 7201 50  0000 L CNN
F 2 "Connector_PinHeader_2.54mm:PinHeader_1x02_P2.54mm_Vertical" H 4200 7300 50  0001 C CNN
F 3 "~" H 4200 7300 50  0001 C CNN
	1    4200 7300
	-1   0    0    -1  
$EndComp
Text GLabel 4400 7300 2    50   Input ~ 0
Water+
Text GLabel 4400 7400 2    50   Input ~ 0
Water-
Text GLabel 10400 5050 2    50   Input ~ 0
Temp+
Text GLabel 10400 5150 2    50   Input ~ 0
Temp-
Text GLabel 1150 5500 0    50   Input ~ 0
Water-
Text GLabel 1150 5400 0    50   Input ~ 0
Water+
Text GLabel 1450 6400 2    50   Input ~ 0
GPIO24
Text GLabel 1450 6500 2    50   Input ~ 0
GPIO8
Text GLabel 1450 6700 2    50   Input ~ 0
GPIO10
$Comp
L power:GND #PWR0110
U 1 1 5FC269F1
P 1450 7400
F 0 "#PWR0110" H 1450 7150 50  0001 C CNN
F 1 "GND" V 1450 7150 50  0000 C CNN
F 2 "" H 1450 7400 50  0001 C CNN
F 3 "" H 1450 7400 50  0001 C CNN
	1    1450 7400
	0    -1   -1   0   
$EndComp
$Comp
L power:+5V #PWR0111
U 1 1 5FC3C2DB
P 1450 7500
F 0 "#PWR0111" H 1450 7350 50  0001 C CNN
F 1 "+5V" V 1450 7650 50  0000 L CNN
F 2 "" H 1450 7500 50  0001 C CNN
F 3 "" H 1450 7500 50  0001 C CNN
	1    1450 7500
	0    1    1    0   
$EndComp
$Comp
L Mechanical:Heatsink HS1
U 1 1 5F9595C1
P 6900 2350
F 0 "HS1" H 7042 2471 50  0000 L CNN
F 1 "Heatsink" H 7042 2380 50  0000 L CNN
F 2 "Heatsink:Heatsink_Fischer_SK104-STC-STIC_35x13mm_2xDrill2.5mm" H 6912 2350 50  0001 C CNN
F 3 "~" H 6912 2350 50  0001 C CNN
	1    6900 2350
	1    0    0    -1  
$EndComp
$Comp
L Device:R R1
U 1 1 5F96EFF7
P 3700 2850
F 0 "R1" V 3493 2850 50  0000 C CNN
F 1 "10K" V 3584 2850 50  0000 C CNN
F 2 "Resistor_THT:R_Axial_DIN0207_L6.3mm_D2.5mm_P7.62mm_Horizontal" V 3630 2850 50  0001 C CNN
F 3 "~" H 3700 2850 50  0001 C CNN
	1    3700 2850
	0    1    1    0   
$EndComp
$Comp
L power:+3.3V #PWR0109
U 1 1 5FC17A24
P 1450 6600
F 0 "#PWR0109" H 1450 6450 50  0001 C CNN
F 1 "+3.3V" V 1450 6850 50  0000 C CNN
F 2 "" H 1450 6600 50  0001 C CNN
F 3 "" H 1450 6600 50  0001 C CNN
	1    1450 6600
	0    1    1    0   
$EndComp
Text GLabel 1450 7100 2    50   Input ~ 0
GPIO23
Text GLabel 1450 7000 2    50   Input ~ 0
GPIO18
Text GLabel 1450 6900 2    50   Input ~ 0
GPIO11
Text GLabel 1450 6800 2    50   Input ~ 0
GPIO9
Text GLabel 1450 7300 2    50   Input ~ 0
GPIO15
Text GLabel 1450 7200 2    50   Input ~ 0
GPIO14
Wire Wire Line
	9200 2000 9200 1150
Wire Wire Line
	9200 2000 9200 2500
$Comp
L Transistor_BJT:BC547 Q?
U 1 1 5FA1CDEE
P 2200 2850
F 0 "Q?" H 2391 2896 50  0000 L CNN
F 1 "BC547" H 2391 2805 50  0000 L CNN
F 2 "Package_TO_SOT_THT:TO-92_Inline" H 2400 2775 50  0001 L CIN
F 3 "http://www.fairchildsemi.com/ds/BC/BC547.pdf" H 2200 2850 50  0001 L CNN
	1    2200 2850
	1    0    0    -1  
$EndComp
$Comp
L Device:R R14
U 1 1 5FA1CDFA
P 1550 2850
F 0 "R14" V 1343 2850 50  0000 C CNN
F 1 "1K" V 1434 2850 50  0000 C CNN
F 2 "Resistor_THT:R_Axial_DIN0207_L6.3mm_D2.5mm_P7.62mm_Horizontal" V 1480 2850 50  0001 C CNN
F 3 "~" H 1550 2850 50  0001 C CNN
	1    1550 2850
	0    1    1    0   
$EndComp
Wire Wire Line
	1700 2850 2000 2850
Text GLabel 1150 2850 0    50   Input ~ 0
GPIO14
Wire Wire Line
	1150 2850 1400 2850
$Comp
L power:+5V #PWR?
U 1 1 5FA20527
P 2300 1300
F 0 "#PWR?" H 2300 1150 50  0001 C CNN
F 1 "+5V" H 2315 1473 50  0000 C CNN
F 2 "" H 2300 1300 50  0001 C CNN
F 3 "" H 2300 1300 50  0001 C CNN
	1    2300 1300
	1    0    0    -1  
$EndComp
$Comp
L Diode:1N4007 D3
U 1 1 5FA2682E
P 2300 1900
F 0 "D3" H 2300 2116 50  0000 C CNN
F 1 "1N4148" H 2300 2025 50  0000 C CNN
F 2 "Diode_THT:D_DO-41_SOD81_P7.62mm_Horizontal" H 2300 1725 50  0001 C CNN
F 3 "http://www.vishay.com/docs/88503/1n4001.pdf" H 2300 1900 50  0001 C CNN
	1    2300 1900
	0    1    1    0   
$EndComp
Wire Wire Line
	1900 2000 1900 2150
Wire Wire Line
	1900 2150 2300 2150
Connection ~ 2300 1650
Wire Wire Line
	2300 1650 2300 1750
Wire Wire Line
	1900 1800 1900 1650
Wire Wire Line
	1900 1650 2300 1650
Wire Wire Line
	2300 2150 2300 2050
Wire Wire Line
	2300 2150 2300 2650
Connection ~ 2300 2150
Wire Wire Line
	1600 1800 1900 1800
Wire Wire Line
	1600 2000 1900 2000
Text GLabel 1600 1800 0    50   Input ~ 0
Fan+
Text GLabel 1600 2000 0    50   Input ~ 0
Fan-
Wire Wire Line
	2300 3050 2300 3650
Wire Wire Line
	2300 3650 4000 3650
Connection ~ 4000 3650
Wire Wire Line
	2300 1300 2300 1650
$Comp
L Connector_Generic:Conn_01x03 J7
U 1 1 5FB8321C
P 5450 7300
F 0 "J7" H 5530 7292 50  0000 L CNN
F 1 "Rudder" H 5530 7201 50  0000 L CNN
F 2 "Connector_PinHeader_2.54mm:PinHeader_1x03_P2.54mm_Vertical" H 5450 7300 50  0001 C CNN
F 3 "~" H 5450 7300 50  0001 C CNN
	1    5450 7300
	-1   0    0    -1  
$EndComp
Text GLabel 5650 7300 2    50   Input ~ 0
GPIO15
Wire Wire Line
	1150 5400 2250 5400
Wire Wire Line
	1150 5500 2400 5500
Wire Wire Line
	9450 5150 10400 5150
Wire Wire Line
	7500 5050 10400 5050
Connection ~ 7500 5050
Text GLabel 5650 6950 2    50   Input ~ 0
Fan-
Text GLabel 5650 6850 2    50   Input ~ 0
Fan+
$Comp
L Connector_Generic:Conn_01x02 J6
U 1 1 5FC01573
P 5450 6850
F 0 "J6" H 5530 6842 50  0000 L CNN
F 1 "Fan" H 5530 6751 50  0000 L CNN
F 2 "Connector_PinHeader_2.54mm:PinHeader_1x02_P2.54mm_Vertical" H 5450 6850 50  0001 C CNN
F 3 "~" H 5450 6850 50  0001 C CNN
	1    5450 6850
	-1   0    0    -1  
$EndComp
$Comp
L Connector_Generic:Conn_01x02 J2
U 1 1 5FADE95E
P 2650 6850
F 0 "J2" H 2730 6842 50  0000 L CNN
F 1 "Battery" H 2730 6751 50  0000 L CNN
F 2 "Connector_PinHeader_2.54mm:PinHeader_1x02_P2.54mm_Vertical" H 2730 6705 50  0001 C CNN
F 3 "" H 2650 6850 50  0001 C CNN
	1    2650 6850
	-1   0    0    -1  
$EndComp
Text GLabel 4400 6950 2    50   Input ~ 0
Temp-
Text GLabel 4400 6850 2    50   Input ~ 0
Temp+
$Comp
L power:+BATT #PWR0108
U 1 1 5FAF01C4
P 2850 6850
F 0 "#PWR0108" H 2850 6700 50  0001 C CNN
F 1 "+BATT" V 2865 6978 50  0000 L CNN
F 2 "" H 2850 6850 50  0001 C CNN
F 3 "" H 2850 6850 50  0001 C CNN
	1    2850 6850
	0    1    1    0   
$EndComp
$Comp
L power:GND #PWR0107
U 1 1 5FAE8642
P 2850 6950
F 0 "#PWR0107" H 2850 6700 50  0001 C CNN
F 1 "GND" V 2850 6750 50  0000 R CNN
F 2 "" H 2850 6950 50  0001 C CNN
F 3 "" H 2850 6950 50  0001 C CNN
	1    2850 6950
	0    -1   -1   0   
$EndComp
$Comp
L Connector_Generic:Conn_01x02 J4
U 1 1 5FF949A8
P 4200 6850
F 0 "J4" H 4280 6842 50  0000 L CNN
F 1 "Temp Sensor" H 4280 6751 50  0000 L CNN
F 2 "Connector_PinHeader_2.54mm:PinHeader_1x02_P2.54mm_Vertical" H 4200 6850 50  0001 C CNN
F 3 "~" H 4200 6850 50  0001 C CNN
	1    4200 6850
	-1   0    0    -1  
$EndComp
$Comp
L power:GND #PWR?
U 1 1 5FC1E141
P 5650 7200
F 0 "#PWR?" H 5650 6950 50  0001 C CNN
F 1 "GND" V 5650 6950 50  0000 C CNN
F 2 "" H 5650 7200 50  0001 C CNN
F 3 "" H 5650 7200 50  0001 C CNN
	1    5650 7200
	0    -1   -1   0   
$EndComp
$Comp
L power:+5V #PWR?
U 1 1 5FC1E147
P 5650 7400
F 0 "#PWR?" H 5650 7250 50  0001 C CNN
F 1 "+5V" V 5650 7550 50  0000 L CNN
F 2 "" H 5650 7400 50  0001 C CNN
F 3 "" H 5650 7400 50  0001 C CNN
	1    5650 7400
	0    1    1    0   
$EndComp
$EndSCHEMATC
